<?xml version="1.0" encoding="UTF-8" standalone="no"?>
<svg
   xmlns:dc="http://purl.org/dc/elements/1.1/"
   xmlns:cc="http://creativecommons.org/ns#"
   xmlns:rdf="http://www.w3.org/1999/02/22-rdf-syntax-ns#"
   xmlns:svg="http://www.w3.org/2000/svg"
   xmlns="http://www.w3.org/2000/svg"
   xmlns:sodipodi="http://sodipodi.sourceforge.net/DTD/sodipodi-0.dtd"
   xmlns:inkscape="http://www.inkscape.org/namespaces/inkscape"
   sodipodi:docname="kleineElefantenBeschuetzen2.svg"
   inkscape:version="1.0 (4035a4fb49, 2020-05-01)"
   id="svg8"
   version="1.1"
   viewBox="0 0 297 210"
   height="210mm"
   width="297mm">
  <defs
     id="defs2">
    <marker
       inkscape:isstock="true"
       style="overflow:visible"
       id="marker1641"
       refX="0"
       refY="0"
       orient="auto"
       inkscape:stockid="Arrow1Mend">
      <path
         transform="matrix(-0.4,0,0,-0.4,-4,0)"
         style="fill:#00ff00;fill-opacity:1;fill-rule:evenodd;stroke:#00ff00;stroke-width:1pt;stroke-opacity:1"
         d="M 0,0 5,-5 -12.5,0 5,5 Z"
         id="path1639" />
    </marker>
    <marker
       inkscape:stockid="Arrow1Mend"
       orient="auto"
       refY="0"
       refX="0"
       id="marker1168"
       style="overflow:visible"
       inkscape:isstock="true">
      <path
         id="path1166"
         d="M 0,0 5,-5 -12.5,0 5,5 Z"
         style="fill:#ff0000;fill-opacity:1;fill-rule:evenodd;stroke:#ff0000;stroke-width:1pt;stroke-opacity:1"
         transform="matrix(-0.4,0,0,-0.4,-4,0)" />
    </marker>
    <rect
       id="rect6072"
       height="195.39875"
       width="405.52362"
       y="-51.404762"
       x="150.8125" />
    <rect
       id="rect6012"
       height="94.116071"
       width="150.05655"
       y="-45.735119"
       x="170.08929" />
    <marker
       inkscape:stockid="Arrow1Mend"
       orient="auto"
       refY="0"
       refX="0"
       id="marker3695"
       style="overflow:visible"
       inkscape:isstock="true">
      <path
         id="path3693"
         d="M 0,0 5,-5 -12.5,0 5,5 Z"
         style="fill:#000000;fill-opacity:1;fill-rule:evenodd;stroke:#000000;stroke-width:1pt;stroke-opacity:1"
         transform="matrix(-0.4,0,0,-0.4,-4,0)" />
    </marker>
    <marker
       inkscape:isstock="true"
       style="overflow:visible"
       id="Arrow1Mend"
       refX="0"
       refY="0"
       orient="auto"
       inkscape:stockid="Arrow1Mend">
      <path
         transform="matrix(-0.4,0,0,-0.4,-4,0)"
         style="fill:#000000;fill-opacity:1;fill-rule:evenodd;stroke:#000000;stroke-width:1pt;stroke-opacity:1"
         d="M 0,0 5,-5 -12.5,0 5,5 Z"
         id="path890" />
    </marker>
    <marker
       inkscape:stockid="Arrow1Mend"
       orient="auto"
       refY="0"
       refX="0"
       id="Arrow1Mend-3"
       style="overflow:visible"
       inkscape:isstock="true">
      <path
         id="path890-1"
         d="M 0,0 5,-5 -12.5,0 5,5 Z"
         style="fill:#000000;fill-opacity:1;fill-rule:evenodd;stroke:#000000;stroke-width:1pt;stroke-opacity:1"
         transform="matrix(-0.4,0,0,-0.4,-4,0)" />
    </marker>
    <marker
       inkscape:stockid="Arrow1Mend"
       orient="auto"
       refY="0"
       refX="0"
       id="Arrow1Mend-6"
       style="overflow:visible"
       inkscape:isstock="true">
      <path
         id="path890-5"
         d="M 0,0 5,-5 -12.5,0 5,5 Z"
         style="fill:#000000;fill-opacity:1;fill-rule:evenodd;stroke:#000000;stroke-width:1pt;stroke-opacity:1"
         transform="matrix(-0.4,0,0,-0.4,-4,0)" />
    </marker>
    <marker
       inkscape:isstock="true"
       style="overflow:visible"
       id="Arrow1Mend-3-2"
       refX="0"
       refY="0"
       orient="auto"
       inkscape:stockid="Arrow1Mend">
      <path
         transform="matrix(-0.4,0,0,-0.4,-4,0)"
         style="fill:#000000;fill-opacity:1;fill-rule:evenodd;stroke:#000000;stroke-width:1pt;stroke-opacity:1"
         d="M 0,0 5,-5 -12.5,0 5,5 Z"
         id="path890-1-1" />
    </marker>
    <marker
       inkscape:collect="always"
       inkscape:stockid="Arrow1Mend"
       orient="auto"
       refY="0"
       refX="0"
       id="Arrow1Mend-7"
       style="overflow:visible"
       inkscape:isstock="true">
      <path
         id="path890-4"
         d="M 0,0 5,-5 -12.5,0 5,5 Z"
         style="fill:#000000;fill-opacity:1;fill-rule:evenodd;stroke:#000000;stroke-width:1pt;stroke-opacity:1"
         transform="matrix(-0.4,0,0,-0.4,-4,0)" />
    </marker>
    <marker
       inkscape:isstock="true"
       style="overflow:visible"
       id="Arrow1Mend-3-3"
       refX="0"
       refY="0"
       orient="auto"
       inkscape:stockid="Arrow1Mend">
      <path
         transform="matrix(-0.4,0,0,-0.4,-4,0)"
         style="fill:#000000;fill-opacity:1;fill-rule:evenodd;stroke:#000000;stroke-width:1pt;stroke-opacity:1"
         d="M 0,0 5,-5 -12.5,0 5,5 Z"
         id="path890-1-4" />
    </marker>
    <marker
       inkscape:collect="always"
       inkscape:isstock="true"
       style="overflow:visible"
       id="Arrow1Mend-7-6"
       refX="0"
       refY="0"
       orient="auto"
       inkscape:stockid="Arrow1Mend">
      <path
         transform="matrix(-0.4,0,0,-0.4,-4,0)"
         style="fill:#000000;fill-opacity:1;fill-rule:evenodd;stroke:#000000;stroke-width:1pt;stroke-opacity:1"
         d="M 0,0 5,-5 -12.5,0 5,5 Z"
         id="path890-4-2" />
    </marker>
    <marker
       inkscape:isstock="true"
       style="overflow:visible"
       id="Arrow1Mend-6-4"
       refX="0"
       refY="0"
       orient="auto"
       inkscape:stockid="Arrow1Mend">
      <path
         transform="matrix(-0.4,0,0,-0.4,-4,0)"
         style="fill:#000000;fill-opacity:1;fill-rule:evenodd;stroke:#000000;stroke-width:1pt;stroke-opacity:1"
         d="M 0,0 5,-5 -12.5,0 5,5 Z"
         id="path890-5-7" />
    </marker>
    <marker
       inkscape:stockid="Arrow1Mend"
       orient="auto"
       refY="0"
       refX="0"
       id="Arrow1Mend-8"
       style="overflow:visible"
       inkscape:isstock="true">
      <path
         id="path890-7"
         d="M 0,0 5,-5 -12.5,0 5,5 Z"
         style="fill:#000000;fill-opacity:1;fill-rule:evenodd;stroke:#000000;stroke-width:1pt;stroke-opacity:1"
         transform="matrix(-0.4,0,0,-0.4,-4,0)" />
    </marker>
    <marker
       inkscape:isstock="true"
       style="overflow:visible"
       id="Arrow1Mend-3-0"
       refX="0"
       refY="0"
       orient="auto"
       inkscape:stockid="Arrow1Mend">
      <path
         transform="matrix(-0.4,0,0,-0.4,-4,0)"
         style="fill:#000000;fill-opacity:1;fill-rule:evenodd;stroke:#000000;stroke-width:1pt;stroke-opacity:1"
         d="M 0,0 5,-5 -12.5,0 5,5 Z"
         id="path890-1-7" />
    </marker>
    <marker
       inkscape:isstock="true"
       style="overflow:visible"
       id="Arrow1Mend-6-46"
       refX="0"
       refY="0"
       orient="auto"
       inkscape:stockid="Arrow1Mend">
      <path
         transform="matrix(-0.4,0,0,-0.4,-4,0)"
         style="fill:#000000;fill-opacity:1;fill-rule:evenodd;stroke:#000000;stroke-width:1pt;stroke-opacity:1"
         d="M 0,0 5,-5 -12.5,0 5,5 Z"
         id="path890-5-8" />
    </marker>
    <marker
       inkscape:stockid="Arrow1Mend"
       orient="auto"
       refY="0"
       refX="0"
       id="Arrow1Mend-3-2-4"
       style="overflow:visible"
       inkscape:isstock="true">
      <path
         id="path890-1-1-3"
         d="M 0,0 5,-5 -12.5,0 5,5 Z"
         style="fill:#000000;fill-opacity:1;fill-rule:evenodd;stroke:#000000;stroke-width:1pt;stroke-opacity:1"
         transform="matrix(-0.4,0,0,-0.4,-4,0)" />
    </marker>
    <marker
       inkscape:isstock="true"
       style="overflow:visible"
       id="Arrow1Mend-7-8"
       refX="0"
       refY="0"
       orient="auto"
       inkscape:stockid="Arrow1Mend">
      <path
         transform="matrix(-0.4,0,0,-0.4,-4,0)"
         style="fill:#000000;fill-opacity:1;fill-rule:evenodd;stroke:#000000;stroke-width:1pt;stroke-opacity:1"
         d="M 0,0 5,-5 -12.5,0 5,5 Z"
         id="path890-4-8" />
    </marker>
    <marker
       inkscape:stockid="Arrow1Mend"
       orient="auto"
       refY="0"
       refX="0"
       id="Arrow1Mend-3-3-0"
       style="overflow:visible"
       inkscape:isstock="true">
      <path
         id="path890-1-4-1"
         d="M 0,0 5,-5 -12.5,0 5,5 Z"
         style="fill:#000000;fill-opacity:1;fill-rule:evenodd;stroke:#000000;stroke-width:1pt;stroke-opacity:1"
         transform="matrix(-0.4,0,0,-0.4,-4,0)" />
    </marker>
    <marker
       inkscape:stockid="Arrow1Mend"
       orient="auto"
       refY="0"
       refX="0"
       id="Arrow1Mend-6-4-7"
       style="overflow:visible"
       inkscape:isstock="true">
      <path
         id="path890-5-7-3"
         d="M 0,0 5,-5 -12.5,0 5,5 Z"
         style="fill:#000000;fill-opacity:1;fill-rule:evenodd;stroke:#000000;stroke-width:1pt;stroke-opacity:1"
         transform="matrix(-0.4,0,0,-0.4,-4,0)" />
    </marker>
    <marker
       inkscape:stockid="Arrow1Mend"
       orient="auto"
       refY="0"
       refX="0"
       id="Arrow1Mend-7-6-8"
       style="overflow:visible"
       inkscape:isstock="true">
      <path
         id="path890-4-2-1"
         d="M 0,0 5,-5 -12.5,0 5,5 Z"
         style="fill:#000000;fill-opacity:1;fill-rule:evenodd;stroke:#000000;stroke-width:1pt;stroke-opacity:1"
         transform="matrix(-0.4,0,0,-0.4,-4,0)" />
    </marker>
    <marker
       inkscape:stockid="Arrow1Mend"
       orient="auto"
       refY="0"
       refX="0"
       id="Arrow1Mend-69"
       style="overflow:visible"
       inkscape:isstock="true">
      <path
         id="path890-3"
         d="M 0,0 5,-5 -12.5,0 5,5 Z"
         style="fill:#000000;fill-opacity:1;fill-rule:evenodd;stroke:#000000;stroke-width:1pt;stroke-opacity:1"
         transform="matrix(-0.4,0,0,-0.4,-4,0)" />
    </marker>
    <marker
       inkscape:collect="always"
       inkscape:isstock="true"
       style="overflow:visible"
       id="Arrow1Mend-3-8"
       refX="0"
       refY="0"
       orient="auto"
       inkscape:stockid="Arrow1Mend">
      <path
         transform="matrix(-0.4,0,0,-0.4,-4,0)"
         style="fill:#000000;fill-opacity:1;fill-rule:evenodd;stroke:#000000;stroke-width:1pt;stroke-opacity:1"
         d="M 0,0 5,-5 -12.5,0 5,5 Z"
         id="path890-1-2" />
    </marker>
    <marker
       inkscape:isstock="true"
       style="overflow:visible"
       id="Arrow1Mend-6-2"
       refX="0"
       refY="0"
       orient="auto"
       inkscape:stockid="Arrow1Mend">
      <path
         transform="matrix(-0.4,0,0,-0.4,-4,0)"
         style="fill:#000000;fill-opacity:1;fill-rule:evenodd;stroke:#000000;stroke-width:1pt;stroke-opacity:1"
         d="M 0,0 5,-5 -12.5,0 5,5 Z"
         id="path890-5-9" />
    </marker>
    <marker
       inkscape:stockid="Arrow1Mend"
       orient="auto"
       refY="0"
       refX="0"
       id="Arrow1Mend-3-2-6"
       style="overflow:visible"
       inkscape:isstock="true">
      <path
         id="path890-1-1-30"
         d="M 0,0 5,-5 -12.5,0 5,5 Z"
         style="fill:#000000;fill-opacity:1;fill-rule:evenodd;stroke:#000000;stroke-width:1pt;stroke-opacity:1"
         transform="matrix(-0.4,0,0,-0.4,-4,0)" />
    </marker>
    <marker
       inkscape:isstock="true"
       style="overflow:visible"
       id="Arrow1Mend-7-87"
       refX="0"
       refY="0"
       orient="auto"
       inkscape:stockid="Arrow1Mend">
      <path
         transform="matrix(-0.4,0,0,-0.4,-4,0)"
         style="fill:#000000;fill-opacity:1;fill-rule:evenodd;stroke:#000000;stroke-width:1pt;stroke-opacity:1"
         d="M 0,0 5,-5 -12.5,0 5,5 Z"
         id="path890-4-88" />
    </marker>
    <marker
       inkscape:stockid="Arrow1Mend"
       orient="auto"
       refY="0"
       refX="0"
       id="Arrow1Mend-3-3-7"
       style="overflow:visible"
       inkscape:isstock="true">
      <path
         id="path890-1-4-4"
         d="M 0,0 5,-5 -12.5,0 5,5 Z"
         style="fill:#000000;fill-opacity:1;fill-rule:evenodd;stroke:#000000;stroke-width:1pt;stroke-opacity:1"
         transform="matrix(-0.4,0,0,-0.4,-4,0)" />
    </marker>
    <marker
       inkscape:stockid="Arrow1Mend"
       orient="auto"
       refY="0"
       refX="0"
       id="Arrow1Mend-6-4-8"
       style="overflow:visible"
       inkscape:isstock="true">
      <path
         id="path890-5-7-8"
         d="M 0,0 5,-5 -12.5,0 5,5 Z"
         style="fill:#000000;fill-opacity:1;fill-rule:evenodd;stroke:#000000;stroke-width:1pt;stroke-opacity:1"
         transform="matrix(-0.4,0,0,-0.4,-4,0)" />
    </marker>
    <marker
       inkscape:stockid="Arrow1Mend"
       orient="auto"
       refY="0"
       refX="0"
       id="Arrow1Mend-7-6-4"
       style="overflow:visible"
       inkscape:isstock="true">
      <path
         id="path890-4-2-6"
         d="M 0,0 5,-5 -12.5,0 5,5 Z"
         style="fill:#000000;fill-opacity:1;fill-rule:evenodd;stroke:#000000;stroke-width:1pt;stroke-opacity:1"
         transform="matrix(-0.4,0,0,-0.4,-4,0)" />
    </marker>
    <marker
       inkscape:isstock="true"
       style="overflow:visible"
       id="marker1168-2"
       refX="0"
       refY="0"
       orient="auto"
       inkscape:stockid="Arrow1Mend">
      <path
         transform="matrix(-0.4,0,0,-0.4,-4,0)"
         style="fill:#ff0000;fill-opacity:1;fill-rule:evenodd;stroke:#ff0000;stroke-width:1pt;stroke-opacity:1"
         d="M 0,0 5,-5 -12.5,0 5,5 Z"
         id="path1166-8" />
    </marker>
    <marker
       inkscape:stockid="Arrow1Mend"
       orient="auto"
       refY="0"
       refX="0"
       id="marker1641-3"
       style="overflow:visible"
       inkscape:isstock="true">
      <path
         id="path1639-0"
         d="M 0,0 5,-5 -12.5,0 5,5 Z"
         style="fill:#00ff00;fill-opacity:1;fill-rule:evenodd;stroke:#00ff00;stroke-width:1pt;stroke-opacity:1"
         transform="matrix(-0.4,0,0,-0.4,-4,0)" />
    </marker>
  </defs>
  <sodipodi:namedview
     inkscape:window-maximized="1"
     inkscape:window-y="-8"
     inkscape:window-x="1912"
     inkscape:window-height="1017"
     inkscape:window-width="1920"
     showgrid="false"
     inkscape:document-rotation="0"
     inkscape:current-layer="layer1"
     inkscape:document-units="mm"
     inkscape:cy="397.23605"
     inkscape:cx="463.30828"
     inkscape:zoom="2.1292659"
     inkscape:pageshadow="2"
     inkscape:pageopacity="0.0"
     borderopacity="1.0"
     bordercolor="#666666"
     pagecolor="#ffffff"
     id="base" />
  <metadata
     id="metadata5">
    <rdf:RDF>
      <cc:Work
         rdf:about="">
        <dc:format>image/svg+xml</dc:format>
        <dc:type
           rdf:resource="http://purl.org/dc/dcmitype/StillImage" />
        <dc:title />
      </cc:Work>
    </rdf:RDF>
  </metadata>
  <g
     id="layer1"
     inkscape:groupmode="layer"
     inkscape:label="Ebene 1">
    <text
       inkscape:export-ydpi="172.39999"
       inkscape:export-xdpi="172.39999"
       xml:space="preserve"
       style="font-size:5.07865px;line-height:1.25;font-family:slave;-inkscape-font-specification:slave;stroke-width:0.126966"
       x="316.9462"
       y="141.05136"
       id="text3971-1"><tspan
         id="tspan6008"
         sodipodi:role="line"
         x="316.9462"
         y="141.05136"
         style="text-align:end;text-anchor:end;stroke-width:0.126966" /></text>
    <text
       inkscape:export-ydpi="172.39999"
       inkscape:export-xdpi="172.39999"
       style="line-height:1.25;font-family:slave;font-size:10.58333333px;-inkscape-font-specification:slave;white-space:pre;shape-inside:url(#rect6012);"
       id="text6010"
       xml:space="preserve" />
    <g
       id="g1561">
      <rect
         style="fill:#f2f2f2;stroke:#f2f2f2;stroke-width:0.421522;stroke-linecap:round;stroke-linejoin:round;stroke-miterlimit:4;stroke-dasharray:none"
         id="rect7485"
         width="270.77036"
         height="145.46074"
         x="14.16163"
         y="35.582966"
         inkscape:export-xdpi="172.39999"
         inkscape:export-ydpi="172.39999" />
      <g
         id="g5490"
         transform="matrix(1.3211154,0,0,1.3211154,-80.993345,-41.606807)"
         inkscape:export-xdpi="172.39999"
         inkscape:export-ydpi="172.39999">
        <g
           transform="matrix(0.37973904,0,0,0.37973904,81.124182,76.448454)"
           id="g1706">
          <path
             id="path833"
             style="fill:#ff5555;stroke:#ff5555;stroke-width:7.55906;stroke-linecap:round;stroke-linejoin:round"
             d="M 410.87305,157.14258 A 307.14284,307.14284 0 0 0 104.28516,464.28516 307.14284,307.14284 0 0 0 411.42773,771.42773 V 157.14258 a 307.14284,307.14284 0 0 0 -0.55468,0 z"
             transform="scale(0.26458333)" />
          <path
             d="M 108.85692,204.10692 A 81.264876,81.264876 0 0 0 189.97497,122.84211 81.264876,81.264876 0 0 0 108.71016,41.577308 V 204.10692 a 81.264876,81.264876 0 0 0 0.14676,0 z"
             style="fill:#2a7fff;stroke:#2a7fff;stroke-width:2;stroke-linecap:round;stroke-linejoin:round"
             id="path833-6" />
          <path
             style="fill:none;stroke:#000000;stroke-width:1;stroke-linecap:butt;stroke-linejoin:miter;stroke-miterlimit:4;stroke-dasharray:none;stroke-opacity:1;marker-end:url(#Arrow1Mend)"
             d="m 189.97497,122.84211 h 21.31372"
             id="path879" />
          <path
             id="path879-9"
             d="M 166.7707,65.306684 181.84178,50.235608"
             style="fill:none;stroke:#000000;stroke-width:1;stroke-linecap:butt;stroke-linejoin:miter;stroke-miterlimit:4;stroke-dasharray:none;stroke-opacity:1;marker-end:url(#Arrow1Mend-3)" />
          <path
             id="path879-8"
             d="M 51.867906,65.750529 36.796828,50.679451"
             style="fill:none;stroke:#000000;stroke-width:1;stroke-linecap:butt;stroke-linejoin:miter;stroke-miterlimit:4;stroke-dasharray:none;stroke-opacity:1;marker-end:url(#Arrow1Mend-6)" />
          <path
             style="fill:none;stroke:#000000;stroke-width:1;stroke-linecap:butt;stroke-linejoin:miter;stroke-miterlimit:4;stroke-dasharray:none;stroke-opacity:1;marker-end:url(#Arrow1Mend-3-2)"
             d="M 27.592115,122.84211 H 6.2783919"
             id="path879-9-9" />
          <path
             id="path879-2"
             d="M 107.65182,41.577307 V 20.263583"
             style="fill:none;stroke:#000000;stroke-width:1;stroke-linecap:butt;stroke-linejoin:miter;stroke-miterlimit:4;stroke-dasharray:none;stroke-opacity:1;marker-end:url(#Arrow1Mend-7)" />
          <path
             style="fill:none;stroke:#000000;stroke-width:1;stroke-linecap:butt;stroke-linejoin:miter;stroke-miterlimit:4;stroke-dasharray:none;stroke-opacity:1;marker-end:url(#Arrow1Mend-3-3)"
             d="m 166.77071,180.90671 15.07107,15.07108"
             id="path879-9-2" />
          <path
             style="fill:none;stroke:#000000;stroke-width:1;stroke-linecap:butt;stroke-linejoin:miter;stroke-miterlimit:4;stroke-dasharray:none;stroke-opacity:1;marker-end:url(#Arrow1Mend-6-4)"
             d="M 51.199738,181.26468 36.128661,196.33576"
             id="path879-8-7" />
          <path
             style="fill:none;stroke:#000000;stroke-width:1;stroke-linecap:butt;stroke-linejoin:miter;stroke-miterlimit:4;stroke-dasharray:none;stroke-opacity:1;marker-end:url(#Arrow1Mend-7-6)"
             d="m 107.65182,204.63609 v 21.31372"
             id="path879-2-7" />
        </g>
        <g
           transform="matrix(0.37973904,0,0,0.37973904,81.430498,77.1192)"
           id="g2943">
          <path
             d="M 107.93008,69.332144 A 51.839486,51.839486 0 0 0 56.184257,121.17159 51.839486,51.839486 0 0 0 108.0237,173.01103 V 69.332144 a 51.839486,51.839486 0 0 0 -0.0936,0 z"
             style="fill:#ff8080;stroke:#ff8080;stroke-width:1.27582;stroke-linecap:round;stroke-linejoin:round"
             id="path833-1" />
          <path
             id="path833-6-5"
             style="fill:#80b3ff;stroke:#80b3ff;stroke-width:1.27582;stroke-linecap:round;stroke-linejoin:round"
             d="M 108.0237,173.01103 A 51.839486,51.839486 0 0 0 159.76952,121.17158 51.839486,51.839486 0 0 0 107.93008,69.332145 V 173.01103 a 51.839486,51.839486 0 0 0 0.0936,0 z" />
          <path
             id="path879-7"
             d="m 159.76952,121.17158 h 13.59619"
             style="fill:none;stroke:#000000;stroke-width:0.637908;stroke-linecap:butt;stroke-linejoin:miter;stroke-miterlimit:4;stroke-dasharray:none;stroke-opacity:1;marker-end:url(#Arrow1Mend-8)" />
          <path
             style="fill:none;stroke:#000000;stroke-width:0.637908;stroke-linecap:butt;stroke-linejoin:miter;stroke-miterlimit:4;stroke-dasharray:none;stroke-opacity:1;marker-end:url(#Arrow1Mend-3-0)"
             d="m 144.96734,84.469295 9.61396,-9.613954"
             id="path879-9-8" />
          <path
             style="fill:none;stroke:#000000;stroke-width:0.637908;stroke-linecap:butt;stroke-linejoin:miter;stroke-miterlimit:4;stroke-dasharray:none;stroke-opacity:1;marker-end:url(#Arrow1Mend-6-46)"
             d="M 71.66997,84.752427 62.056014,75.138471"
             id="path879-8-71" />
          <path
             id="path879-9-9-3"
             d="M 56.184257,121.17158 H 42.58807"
             style="fill:none;stroke:#000000;stroke-width:0.637908;stroke-linecap:butt;stroke-linejoin:miter;stroke-miterlimit:4;stroke-dasharray:none;stroke-opacity:1;marker-end:url(#Arrow1Mend-3-2-4)" />
          <path
             style="fill:none;stroke:#000000;stroke-width:0.637908;stroke-linecap:butt;stroke-linejoin:miter;stroke-miterlimit:4;stroke-dasharray:none;stroke-opacity:1;marker-end:url(#Arrow1Mend-7-8)"
             d="M 107.25496,69.332144 V 55.735957"
             id="path879-2-4" />
          <path
             id="path879-9-2-4"
             d="m 144.96735,158.21144 9.61395,9.61395"
             style="fill:none;stroke:#000000;stroke-width:0.637908;stroke-linecap:butt;stroke-linejoin:miter;stroke-miterlimit:4;stroke-dasharray:none;stroke-opacity:1;marker-end:url(#Arrow1Mend-3-3-0)" />
          <path
             id="path879-8-7-3"
             d="m 71.243741,158.43979 -9.613956,9.61396"
             style="fill:none;stroke:#000000;stroke-width:0.637908;stroke-linecap:butt;stroke-linejoin:miter;stroke-miterlimit:4;stroke-dasharray:none;stroke-opacity:1;marker-end:url(#Arrow1Mend-6-4-7)" />
          <path
             id="path879-2-7-0"
             d="m 107.25496,173.34859 v 13.59618"
             style="fill:none;stroke:#000000;stroke-width:0.637908;stroke-linecap:butt;stroke-linejoin:miter;stroke-miterlimit:4;stroke-dasharray:none;stroke-opacity:1;marker-end:url(#Arrow1Mend-7-6-8)" />
        </g>
        <g
           transform="matrix(0.37973904,0,0,0.37973904,-17.220381,69.811723)"
           id="g3445">
          <path
             d="m 367.74451,120.17568 a 20.341886,20.341886 0 0 0 -20.30514,20.34187 20.341886,20.341886 0 0 0 20.34187,20.34187 v -40.68374 a 20.341886,20.341886 0 0 0 -0.0367,0 z"
             style="fill:#ffaaaa;stroke:#ffaaaa;stroke-width:0.500632;stroke-linecap:round;stroke-linejoin:round"
             id="path833-9" />
          <path
             id="path833-6-1"
             style="fill:#aaccff;stroke:#aaccff;stroke-width:0.500632;stroke-linecap:round;stroke-linejoin:round"
             d="m 367.78124,160.85942 a 20.341887,20.341887 0 0 0 20.30514,-20.34187 20.341887,20.341887 0 0 0 -20.34187,-20.34187 v 40.68374 a 20.341887,20.341887 0 0 0 0.0367,0 z" />
          <path
             id="path879-1"
             d="m 388.08638,140.51755 h 5.33516"
             style="fill:none;stroke:#000000;stroke-width:0.250316;stroke-linecap:butt;stroke-linejoin:miter;stroke-miterlimit:4;stroke-dasharray:none;stroke-opacity:1;marker-end:url(#Arrow1Mend-69)" />
          <path
             style="fill:none;stroke:#000000;stroke-width:0.250316;stroke-linecap:butt;stroke-linejoin:miter;stroke-miterlimit:4;stroke-dasharray:none;stroke-opacity:1;marker-end:url(#Arrow1Mend-3-8)"
             d="m 382.27798,126.11552 3.77253,-3.77253"
             id="path879-9-6" />
          <path
             style="fill:none;stroke:#000000;stroke-width:0.250316;stroke-linecap:butt;stroke-linejoin:miter;stroke-miterlimit:4;stroke-dasharray:none;stroke-opacity:1;marker-end:url(#Arrow1Mend-6-2)"
             d="m 353.51599,126.22662 -3.77253,-3.77253"
             id="path879-8-0" />
          <path
             id="path879-9-9-7"
             d="m 347.43937,140.51755 h -5.33516"
             style="fill:none;stroke:#000000;stroke-width:0.250316;stroke-linecap:butt;stroke-linejoin:miter;stroke-miterlimit:4;stroke-dasharray:none;stroke-opacity:1;marker-end:url(#Arrow1Mend-3-2-6)" />
          <path
             style="fill:none;stroke:#000000;stroke-width:0.250316;stroke-linecap:butt;stroke-linejoin:miter;stroke-miterlimit:4;stroke-dasharray:none;stroke-opacity:1;marker-end:url(#Arrow1Mend-7-87)"
             d="m 367.47959,120.17568 v -5.33516"
             id="path879-2-6" />
          <path
             id="path879-9-2-2"
             d="m 382.27798,155.05204 3.77253,3.77253"
             style="fill:none;stroke:#000000;stroke-width:0.250316;stroke-linecap:butt;stroke-linejoin:miter;stroke-miterlimit:4;stroke-dasharray:none;stroke-opacity:1;marker-end:url(#Arrow1Mend-3-3-7)" />
          <path
             id="path879-8-7-4"
             d="m 353.34874,155.14164 -3.77253,3.77253"
             style="fill:none;stroke:#000000;stroke-width:0.250316;stroke-linecap:butt;stroke-linejoin:miter;stroke-miterlimit:4;stroke-dasharray:none;stroke-opacity:1;marker-end:url(#Arrow1Mend-6-4-8)" />
          <path
             id="path879-2-7-4"
             d="m 367.47959,160.99188 v 5.33516"
             style="fill:none;stroke:#000000;stroke-width:0.250316;stroke-linecap:butt;stroke-linejoin:miter;stroke-miterlimit:4;stroke-dasharray:none;stroke-opacity:1;marker-end:url(#Arrow1Mend-7-6-4)" />
        </g>
        <text
           id="text3689"
           y="160.78946"
           x="126.97079"
           style="font-size:2.5762px;line-height:1.25;font-family:slave;-inkscape-font-specification:slave;stroke-width:0.0644049"
           xml:space="preserve"><tspan
             style="stroke-width:0.0644049"
             y="160.78946"
             x="126.97079"
             id="tspan3687"
             sodipodi:role="line">Only defence</tspan></text>
        <path
           id="path3691"
           d="m 125.98065,159.95711 h -2.23283"
           style="fill:none;stroke:#000000;stroke-width:0.18987;stroke-linecap:butt;stroke-linejoin:miter;stroke-miterlimit:4;stroke-dasharray:none;stroke-opacity:1;marker-end:url(#marker3695)" />
        <path
           inkscape:transform-center-y="-0.15214756"
           inkscape:transform-center-x="0.15214834"
           inkscape:randomized="0"
           inkscape:rounded="0"
           inkscape:flatsided="false"
           sodipodi:arg2="1.2277597"
           sodipodi:arg1="0.78539816"
           sodipodi:r2="0.94387174"
           sodipodi:r1="1.1951768"
           sodipodi:cy="135.96112"
           sodipodi:cx="127.25634"
           sodipodi:sides="5"
           id="path3859"
           style="fill:#800080;stroke:#800080;stroke-width:0.0493828;stroke-linecap:round;stroke-linejoin:round;stroke-miterlimit:4;stroke-dasharray:none"
           sodipodi:type="star"
           d="m 128.10146,136.80624 -0.52765,0.0438 -0.86007,0.17603 -0.20467,-0.4883 -0.43319,-0.76358 0.40115,-0.34554 0.59234,-0.64795 0.4526,0.27474 0.79928,0.36312 -0.12143,0.51535 z" />
        <path
           inkscape:transform-center-y="-0.15214756"
           inkscape:transform-center-x="0.15214834"
           inkscape:randomized="0"
           inkscape:rounded="0"
           inkscape:flatsided="false"
           sodipodi:arg2="1.2277597"
           sodipodi:arg1="0.78539816"
           sodipodi:r2="0.94387174"
           sodipodi:r1="1.1951768"
           sodipodi:cy="123.98498"
           sodipodi:cx="138.42055"
           sodipodi:sides="5"
           id="path3859-5"
           style="fill:#800080;stroke:#800080;stroke-width:0.0493828;stroke-linecap:round;stroke-linejoin:round;stroke-miterlimit:4;stroke-dasharray:none"
           sodipodi:type="star"
           d="m 139.26567,124.8301 -0.52765,0.0438 -0.86007,0.17603 -0.20467,-0.4883 -0.43319,-0.76358 0.40115,-0.34555 0.59234,-0.64794 0.4526,0.27474 0.79928,0.36312 -0.12143,0.51534 z" />
        <path
           inkscape:transform-center-y="-0.15214756"
           inkscape:transform-center-x="0.15214834"
           inkscape:randomized="0"
           inkscape:rounded="0"
           inkscape:flatsided="false"
           sodipodi:arg2="1.2277597"
           sodipodi:arg1="0.78539816"
           sodipodi:r2="0.94387174"
           sodipodi:r1="1.1951768"
           sodipodi:cy="125.71035"
           sodipodi:cx="126.03843"
           sodipodi:sides="5"
           id="path3859-4"
           style="fill:#800080;stroke:#800080;stroke-width:0.0493828;stroke-linecap:round;stroke-linejoin:round;stroke-miterlimit:4;stroke-dasharray:none"
           sodipodi:type="star"
           d="m 126.88355,126.55547 -0.52765,0.0438 -0.86007,0.17603 -0.20467,-0.4883 -0.43319,-0.76358 0.40115,-0.34554 0.59234,-0.64795 0.4526,0.27474 0.79928,0.36312 -0.12143,0.51535 z" />
        <path
           inkscape:transform-center-y="-0.15214756"
           inkscape:transform-center-x="0.15214834"
           inkscape:randomized="0"
           inkscape:rounded="0"
           inkscape:flatsided="false"
           sodipodi:arg2="1.2277597"
           sodipodi:arg1="0.78539816"
           sodipodi:r2="0.94387174"
           sodipodi:r1="1.1951768"
           sodipodi:cy="118.50438"
           sodipodi:cx="108.68318"
           sodipodi:sides="5"
           id="path3859-45"
           style="fill:#800080;stroke:#800080;stroke-width:0.0493828;stroke-linecap:round;stroke-linejoin:round;stroke-miterlimit:4;stroke-dasharray:none"
           sodipodi:type="star"
           d="m 109.5283,119.3495 -0.52765,0.0438 -0.86007,0.17603 -0.20467,-0.4883 -0.43319,-0.76358 0.40115,-0.34555 0.59234,-0.64794 0.4526,0.27474 0.79928,0.36312 -0.12143,0.51535 z" />
        <path
           inkscape:transform-center-y="-0.15214756"
           inkscape:transform-center-x="0.15214834"
           inkscape:randomized="0"
           inkscape:rounded="0"
           inkscape:flatsided="false"
           sodipodi:arg2="1.2277597"
           sodipodi:arg1="0.78539816"
           sodipodi:r2="0.94387174"
           sodipodi:r1="1.1951768"
           sodipodi:cy="107.54317"
           sodipodi:cx="127.9668"
           sodipodi:sides="5"
           id="path3859-2"
           style="fill:#800080;stroke:#800080;stroke-width:0.0493828;stroke-linecap:round;stroke-linejoin:round;stroke-miterlimit:4;stroke-dasharray:none"
           sodipodi:type="star"
           d="m 128.81191,108.38828 -0.52764,0.0438 -0.86007,0.17603 -0.20467,-0.4883 -0.4332,-0.76358 0.40116,-0.34555 0.59234,-0.64795 0.4526,0.27474 0.79928,0.36313 -0.12143,0.51534 z" />
        <path
           inkscape:transform-center-y="-0.15214756"
           inkscape:transform-center-x="0.15214834"
           inkscape:randomized="0"
           inkscape:rounded="0"
           inkscape:flatsided="false"
           sodipodi:arg2="1.2277597"
           sodipodi:arg1="0.78539816"
           sodipodi:r2="0.94387174"
           sodipodi:r1="1.1951768"
           sodipodi:cy="99.322266"
           sodipodi:cx="114.16379"
           sodipodi:sides="5"
           id="path3859-0"
           style="fill:#800080;stroke:#800080;stroke-width:0.0493828;stroke-linecap:round;stroke-linejoin:round;stroke-miterlimit:4;stroke-dasharray:none"
           sodipodi:type="star"
           d="m 115.00891,100.16738 -0.52765,0.0438 -0.86007,0.17603 -0.20467,-0.488304 -0.43319,-0.763577 0.40115,-0.345548 0.59234,-0.647948 0.4526,0.27474 0.79928,0.363124 -0.12143,0.515346 z" />
        <path
           inkscape:transform-center-y="-0.15214756"
           inkscape:transform-center-x="0.15214834"
           inkscape:randomized="0"
           inkscape:rounded="0"
           inkscape:flatsided="false"
           sodipodi:arg2="1.2277597"
           sodipodi:arg1="0.78539816"
           sodipodi:r2="0.94387174"
           sodipodi:r1="1.1951768"
           sodipodi:cy="98.002853"
           sodipodi:cx="132.33098"
           sodipodi:sides="5"
           id="path3859-3"
           style="fill:#800080;stroke:#800080;stroke-width:0.0493828;stroke-linecap:round;stroke-linejoin:round;stroke-miterlimit:4;stroke-dasharray:none"
           sodipodi:type="star"
           d="m 133.1761,98.847971 -0.52765,0.04376 -0.86007,0.176031 -0.20467,-0.4883 -0.43319,-0.763577 0.40115,-0.345548 0.59234,-0.647948 0.4526,0.27474 0.79928,0.363123 -0.12143,0.515347 z" />
        <path
           inkscape:transform-center-y="-0.15214756"
           inkscape:transform-center-x="0.15214834"
           inkscape:randomized="0"
           inkscape:rounded="0"
           inkscape:flatsided="false"
           sodipodi:arg2="1.2277597"
           sodipodi:arg1="0.78539816"
           sodipodi:r2="0.94387174"
           sodipodi:r1="1.1951768"
           sodipodi:cy="144.38501"
           sodipodi:cx="130.30112"
           sodipodi:sides="5"
           id="path3859-8"
           style="fill:#800080;stroke:#800080;stroke-width:0.0493828;stroke-linecap:round;stroke-linejoin:round;stroke-miterlimit:4;stroke-dasharray:none"
           sodipodi:type="star"
           d="m 131.14623,145.23013 -0.52764,0.0438 -0.86007,0.17603 -0.20467,-0.4883 -0.4332,-0.76358 0.40116,-0.34554 0.59234,-0.64795 0.4526,0.27474 0.79928,0.36312 -0.12143,0.51535 z" />
        <path
           inkscape:transform-center-y="-0.15214756"
           inkscape:transform-center-x="0.15214834"
           inkscape:randomized="0"
           inkscape:rounded="0"
           inkscape:flatsided="false"
           sodipodi:arg2="1.2277597"
           sodipodi:arg1="0.78539816"
           sodipodi:r2="0.94387174"
           sodipodi:r1="1.1951768"
           sodipodi:cy="146.31337"
           sodipodi:cx="108.07423"
           sodipodi:sides="5"
           id="path3859-7"
           style="fill:#800080;stroke:#800080;stroke-width:0.0493828;stroke-linecap:round;stroke-linejoin:round;stroke-miterlimit:4;stroke-dasharray:none"
           sodipodi:type="star"
           d="m 108.91934,147.15849 -0.52764,0.0438 -0.86007,0.17603 -0.20467,-0.4883 -0.4332,-0.76358 0.40116,-0.34554 0.59234,-0.64795 0.4526,0.27474 0.79928,0.36312 -0.12144,0.51535 z" />
        <path
           inkscape:transform-center-y="-0.15214756"
           inkscape:transform-center-x="0.15214834"
           inkscape:randomized="0"
           inkscape:rounded="0"
           inkscape:flatsided="false"
           sodipodi:arg2="1.2277597"
           sodipodi:arg1="0.78539816"
           sodipodi:r2="0.94387174"
           sodipodi:r1="1.1951768"
           sodipodi:cy="130.6835"
           sodipodi:cx="99.548843"
           sodipodi:sides="5"
           id="path3859-73"
           style="fill:#800080;stroke:#800080;stroke-width:0.0493828;stroke-linecap:round;stroke-linejoin:round;stroke-miterlimit:4;stroke-dasharray:none"
           sodipodi:type="star"
           d="m 100.39396,131.52862 -0.527647,0.0438 -0.860069,0.17603 -0.204672,-0.4883 -0.433191,-0.76357 0.401154,-0.34555 0.592342,-0.64795 0.452598,0.27474 0.799275,0.36312 -0.12143,0.51535 z" />
        <path
           inkscape:transform-center-y="-0.15214756"
           inkscape:transform-center-x="0.15214834"
           inkscape:randomized="0"
           inkscape:rounded="0"
           inkscape:flatsided="false"
           sodipodi:arg2="1.2277597"
           sodipodi:arg1="0.78539816"
           sodipodi:r2="0.94387174"
           sodipodi:r1="1.1951768"
           sodipodi:cy="115.66258"
           sodipodi:cx="99.142868"
           sodipodi:sides="5"
           id="path3859-732"
           style="fill:#800080;stroke:#800080;stroke-width:0.0493828;stroke-linecap:round;stroke-linejoin:round;stroke-miterlimit:4;stroke-dasharray:none"
           sodipodi:type="star"
           d="m 99.987986,116.5077 -0.527648,0.0438 -0.860069,0.17603 -0.204672,-0.4883 -0.433191,-0.76357 0.401153,-0.34555 0.592342,-0.64795 0.452599,0.27474 0.79928,0.36312 -0.12143,0.51535 z" />
        <path
           inkscape:transform-center-y="-0.15214756"
           inkscape:transform-center-x="0.15214834"
           inkscape:randomized="0"
           inkscape:rounded="0"
           inkscape:flatsided="false"
           sodipodi:arg2="1.2277597"
           sodipodi:arg1="0.78539816"
           sodipodi:r2="0.94387174"
           sodipodi:r1="1.1951768"
           sodipodi:cy="113.12526"
           sodipodi:cx="145.42352"
           sodipodi:sides="5"
           id="path3859-06"
           style="fill:#800080;stroke:#800080;stroke-width:0.0493828;stroke-linecap:round;stroke-linejoin:round;stroke-miterlimit:4;stroke-dasharray:none"
           sodipodi:type="star"
           d="m 146.26864,113.97038 -0.52765,0.0438 -0.86007,0.17603 -0.20467,-0.4883 -0.43319,-0.76358 0.40115,-0.34555 0.59235,-0.64794 0.45259,0.27474 0.79928,0.36312 -0.12143,0.51535 z" />
      </g>
      <text
         xml:space="preserve"
         style="font-size:5.68249px;line-height:1.25;font-family:slave;-inkscape-font-specification:slave;fill:#808000;stroke-width:0.142063"
         x="146.12178"
         y="48.554256"
         id="text3971"
         inkscape:export-xdpi="172.39999"
         inkscape:export-ydpi="172.39999"><tspan
           sodipodi:role="line"
           id="tspan3969"
           x="146.12178"
           y="48.554256"
           style="text-align:center;text-anchor:middle;fill:#808000;stroke:#808000;stroke-width:0.142063">Man erzählt <tspan
   style="fill:#008000;stroke-width:0.142063"
   id="tspan7487">den Kindern</tspan>, dass</tspan><tspan
           sodipodi:role="line"
           x="146.12178"
           y="55.657368"
           style="text-align:center;text-anchor:middle;fill:#808000;stroke:#808000;stroke-width:0.142063"
           id="tspan3973">Elefanten die Kleinen in die</tspan><tspan
           sodipodi:role="line"
           x="146.12178"
           y="62.760483"
           style="text-align:center;text-anchor:middle;fill:#808000;stroke:#808000;stroke-width:0.142063"
           id="tspan3975">Mitte nehmen um sie gegen Aussen</tspan><tspan
           sodipodi:role="line"
           x="146.12178"
           y="69.863594"
           style="text-align:center;text-anchor:middle;fill:#808000;stroke:#808000;stroke-width:0.142063"
           id="tspan3977">zu schützen</tspan></text>
      <path
         inkscape:transform-center-y="-0.49730248"
         inkscape:transform-center-x="0.49730878"
         inkscape:randomized="0"
         inkscape:rounded="0"
         inkscape:flatsided="false"
         sodipodi:arg2="1.2277597"
         sodipodi:arg1="0.78539816"
         sodipodi:r2="3.0850973"
         sodipodi:r1="3.9065022"
         sodipodi:cy="89.782585"
         sodipodi:cx="128.66199"
         sodipodi:sides="5"
         id="path3859-06-6"
         style="fill:#800080;stroke:#800080;stroke-width:0.161411;stroke-linecap:round;stroke-linejoin:round;stroke-miterlimit:4;stroke-dasharray:none"
         sodipodi:type="star"
         d="m 131.4243,92.544899 -1.72465,0.143038 -2.81118,0.575367 -0.66898,-1.596035 -1.41591,-2.495795 1.31119,-1.129443 1.93611,-2.117853 1.47934,0.898002 2.61249,1.18689 -0.39691,1.684438 z"
         inkscape:export-xdpi="172.39999"
         inkscape:export-ydpi="172.39999" />
      <text
         xml:space="preserve"
         style="font-size:4.23902px;line-height:1.25;font-family:slave;-inkscape-font-specification:slave;fill:#800080;stroke:none;stroke-width:0.105976"
         x="136.88902"
         y="90.586067"
         id="text5794"
         inkscape:export-xdpi="172.39999"
         inkscape:export-ydpi="172.39999"><tspan
           sodipodi:role="line"
           id="tspan5792"
           x="136.88902"
           y="90.586067"
           style="font-style:normal;font-variant:normal;font-weight:normal;font-stretch:normal;font-size:5.43364px;font-family:Impact;-inkscape-font-specification:Impact;fill:#800080;stroke:none;stroke-width:0.105976">z.B. durch einige Eltern <tspan
   style="stroke:#ff0000;stroke-width:0.105976"
   id="tspan7176">vorsätzlich eingetragene</tspan></tspan><tspan
           sodipodi:role="line"
           x="136.88902"
           y="97.403267"
           style="font-style:normal;font-variant:normal;font-weight:normal;font-stretch:condensed;font-size:5.43364px;font-family:Impact;-inkscape-font-specification:'Impact Condensed';fill:#800080;stroke:none;stroke-width:0.105976"
           id="tspan5796"><tspan
   id="tspan7182"
   style="font-style:normal;font-variant:normal;font-weight:normal;font-stretch:normal;font-size:5.43364px;font-family:Impact;-inkscape-font-specification:Impact;fill:#800080;stroke:#ff0000;stroke-width:0.105976">frühkindliche </tspan>Sünden, Backlog, Backdoors in DataRetention</tspan><tspan
           sodipodi:role="line"
           x="136.88902"
           y="103.02456"
           style="font-style:normal;font-variant:normal;font-weight:normal;font-stretch:normal;font-family:Impact;-inkscape-font-specification:Impact;fill:#800080;stroke:none;stroke-width:0.105976"
           id="tspan5798">gespeichert um die Jüngeren damit zu erpessen</tspan><tspan
           sodipodi:role="line"
           x="136.88902"
           y="108.64585"
           style="font-style:normal;font-variant:normal;font-weight:normal;font-stretch:normal;font-family:Impact;-inkscape-font-specification:Impact;fill:#800080;stroke:none;stroke-width:0.105976"
           id="tspan5800">und &quot;notfalls&quot; die Gruppe der Gleichaltrigen</tspan><tspan
           sodipodi:role="line"
           x="136.88902"
           y="114.26714"
           style="font-style:normal;font-variant:normal;font-weight:normal;font-stretch:normal;font-family:Impact;-inkscape-font-specification:Impact;fill:#800080;stroke:none;stroke-width:0.105976"
           id="tspan5802">auch durch Fremdbestimmung von innen heraus</tspan><tspan
           sodipodi:role="line"
           x="136.88902"
           y="119.88843"
           style="font-style:normal;font-variant:normal;font-weight:normal;font-stretch:normal;font-family:Impact;-inkscape-font-specification:Impact;fill:#800080;stroke:none;stroke-width:0.105976"
           id="tspan5804">zerstören zu können, WHY?</tspan></text>
      <text
         xml:space="preserve"
         id="text6070"
         style="font-size:10.5833px;line-height:1.25;font-family:slave;-inkscape-font-specification:slave;white-space:pre;shape-inside:url(#rect6072);"
         transform="matrix(0.37619524,0,0,0.37619524,80.191946,143.32556)"
         inkscape:export-xdpi="172.39999"
         inkscape:export-ydpi="172.39999"><tspan
           x="150.8125"
           y="-41.614745"><tspan
             style="fill:#008000;stroke:#008000">Da wir das Konzept nun aber kennen
</tspan></tspan><tspan
           x="150.8125"
           y="-28.385619"><tspan
             style="fill:#008000;stroke:#008000">und auch wissen, dass die Täterschaft
</tspan></tspan><tspan
           x="150.8125"
           y="-15.156493"><tspan
             style="fill:#008000;stroke:#008000">mit älterem Jahrgang den Jüngeren nicht
</tspan></tspan><tspan
           x="150.8125"
           y="-1.9273677"><tspan
             style="fill:#008000;stroke:#008000">Kill- und Mord-Access-Codes geben
</tspan></tspan><tspan
           x="150.8125"
           y="11.301757"><tspan
             style="fill:#008000;stroke:#008000">würde, sollten wir das beheben können
</tspan></tspan><tspan
           x="150.8125"
           y="24.530882"><tspan
             style="fill:#008000;stroke:#008000">und klar wenn die Jüngeren weniger
</tspan></tspan><tspan
           x="150.8125"
           y="37.760007"><tspan
             style="fill:#008000;stroke:#008000">Access Codes haben, würde die Älteren ihre </tspan></tspan><tspan
           x="150.8125"
           y="50.989133"><tspan
             style="fill:#008000;stroke:#008000">Morde den Jüngeren unterschieben können,
</tspan></tspan><tspan
           x="150.8125"
           y="64.218259"><tspan
             style="fill:#008000;stroke:#008000">was aber mit </tspan><tspan
             style="fill:#0000ff;stroke:#0000ff">Induktiver Logik</tspan><tspan
             style="fill:#008000;stroke:#008000"> dann auch
</tspan></tspan><tspan
           x="150.8125"
           y="77.447381"><tspan
             style="fill:#008000;stroke:#008000">auffliegen würde...</tspan></tspan></text>
      <text
         xml:space="preserve"
         style="font-size:3.00292px;line-height:1.25;font-family:slave;-inkscape-font-specification:slave;stroke-width:0.0750734"
         x="73.845047"
         y="156.93053"
         id="text6382"
         inkscape:export-xdpi="172.39999"
         inkscape:export-ydpi="172.39999"><tspan
           sodipodi:role="line"
           id="tspan6380"
           x="73.845047"
           y="156.93053"
           style="stroke-width:0.0750734">1980er</tspan><tspan
           sodipodi:role="line"
           x="73.845047"
           y="160.68417"
           style="stroke-width:0.0750734"
           id="tspan6574">Kinder</tspan></text>
      <text
         id="text6382-3"
         y="142.21112"
         x="73.84507"
         style="font-size:3.00291px;line-height:1.25;font-family:slave;-inkscape-font-specification:slave;stroke-width:0.0750734"
         xml:space="preserve"
         inkscape:export-xdpi="172.39999"
         inkscape:export-ydpi="172.39999"><tspan
           style="stroke-width:0.0750734"
           y="142.21112"
           x="73.84507"
           id="tspan6380-3"
           sodipodi:role="line">1990er</tspan><tspan
           style="stroke-width:0.0750734"
           y="145.96477"
           x="73.84507"
           sodipodi:role="line"
           id="tspan6572">Kinder</tspan></text>
      <text
         xml:space="preserve"
         style="font-size:3.00291px;line-height:1.25;font-family:slave;-inkscape-font-specification:slave;stroke-width:0.0750734"
         x="72.908867"
         y="117.1146"
         id="text6382-3-2"
         inkscape:export-xdpi="172.39999"
         inkscape:export-ydpi="172.39999"><tspan
           sodipodi:role="line"
           id="tspan6380-3-1"
           x="72.908867"
           y="117.1146"
           style="stroke-width:0.0750734">2000er</tspan><tspan
           sodipodi:role="line"
           x="72.908867"
           y="120.86824"
           style="stroke-width:0.0750734"
           id="tspan6570">Kinder</tspan></text>
    </g>
    <path
       id="path1164"
       d="M 128.11242,89.964497 111.00687,107.7888"
       style="fill:none;stroke:#ff0000;stroke-width:0.265;stroke-linecap:butt;stroke-linejoin:miter;stroke-opacity:1;stroke-miterlimit:4;stroke-dasharray:none;marker-end:url(#marker1168)" />
    <path
       sodipodi:nodetypes="cc"
       style="fill:none;stroke:#ff0000;stroke-width:0.264999;stroke-linecap:butt;stroke-linejoin:miter;stroke-miterlimit:4;stroke-dasharray:none;stroke-opacity:1;marker-end:url(#marker1168-2)"
       d="M 111.00687,107.7888 88.484975,101.64444"
       id="path1164-9" />
    <circle
       r="1.1183432"
       cy="111.39941"
       cx="110.71598"
       id="path1605"
       style="fill:#008000;stroke:none;stroke-width:0.11925;stroke-linecap:round;stroke-linejoin:round;stroke-miterlimit:4;stroke-dasharray:none" />
    <circle
       style="fill:#008000;stroke:none;stroke-width:0.271625;stroke-linecap:round;stroke-linejoin:round;stroke-miterlimit:4;stroke-dasharray:none"
       id="path1605-1"
       cx="132.08876"
       cy="127.11834"
       r="2.5473373" />
    <path
       id="path1622"
       d="M 132.27515,127.55325 110.69934,111.36932"
       style="fill:none;stroke:#00ff00;stroke-width:0.264583px;stroke-linecap:butt;stroke-linejoin:miter;stroke-opacity:1;marker-end:url(#marker1641)" />
    <circle
       style="fill:#008000;stroke:none;stroke-width:0.11925;stroke-linecap:round;stroke-linejoin:round;stroke-miterlimit:4;stroke-dasharray:none"
       id="path1605-8"
       cx="87.54142"
       cy="103.44675"
       r="1.1183432" />
    <path
       sodipodi:nodetypes="cc"
       style="fill:none;stroke:#00ff00;stroke-width:0.264583px;stroke-linecap:butt;stroke-linejoin:miter;stroke-opacity:1;marker-end:url(#marker1641-3)"
       d="M 110.69934,111.36932 87.91942,103.65949"
       id="path1622-6" />
  </g>
</svg>
